<?xml version="1.0" encoding="iso-8859-1"?>
<!-- Generator: Adobe Illustrator 16.0.0, SVG Export Plug-In . SVG Version: 6.00 Build 0)  -->
<!DOCTYPE svg PUBLIC "-//W3C//DTD SVG 1.1//EN" "http://www.w3.org/Graphics/SVG/1.1/DTD/svg11.dtd">
<svg version="1.1" id="Capa_1" xmlns="http://www.w3.org/2000/svg" xmlns:xlink="http://www.w3.org/1999/xlink" x="0px" y="0px"
	 width="30.728px" height="30.729px" viewBox="0 0 30.728 30.729" style="enable-background:new 0 0 30.728 30.729;"
	 xml:space="preserve">

	<path d="M29.996,24.08c-0.977,0.978-2.561,0.978-3.535,0L15.365,12.985L4.268,24.081C3.78,24.568,3.14,24.812,2.5,24.812
		s-1.28-0.244-1.768-0.731c-0.977-0.978-0.977-2.56,0-3.535L15.364,5.915l14.63,14.629C30.972,21.521,30.972,23.104,29.996,24.08z"
		/>
</svg>
